<?xml version="1.0" standalone="no"?>
<!DOCTYPE svg PUBLIC "-//W3C//DTD SVG 20010904//EN"
 "http://www.w3.org/TR/2001/REC-SVG-20010904/DTD/svg10.dtd">
<svg version="1.0" xmlns="http://www.w3.org/2000/svg"
 width="212.000000pt" height="200.000000pt" viewBox="0 0 212.000000 200.000000"
 preserveAspectRatio="xMidYMid meet">

<g transform="translate(0.000000,200.000000) scale(0.100000,-0.100000)"
fill="#000000" stroke="none">
<path d="M160 1210 l0 -670 240 0 240 0 0 35 0 35 -205 0 -205 0 0 605 0 605
828 -2 827 -3 3 -602 2 -603 -200 0 -200 0 0 -35 0 -35 235 0 235 0 0 670 0
670 -900 0 -900 0 0 -670z"/>
<path d="M320 1610 l0 -120 30 0 30 0 0 85 0 85 90 0 90 0 0 35 0 35 -120 0
-120 0 0 -120z"/>
<path d="M1550 1695 l0 -35 90 0 90 0 0 -85 0 -85 35 0 35 0 0 120 0 120 -125
0 -125 0 0 -35z"/>
<path d="M626 1465 c-3 -8 -3 -22 0 -30 5 -13 60 -15 433 -13 l426 3 0 25 0
25 -426 3 c-373 2 -428 0 -433 -13z"/>
<path d="M731 1292 c-6 -11 -6 -24 0 -35 9 -15 37 -17 319 -17 169 0 315 3
324 6 19 7 21 35 4 52 -9 9 -95 12 -325 12 -289 0 -313 -1 -322 -18z"/>
<path d="M958 1086 c-97 -35 -150 -81 -199 -176 -34 -64 -34 -204 -1 -271 34
-69 84 -123 145 -154 l54 -28 -50 -109 c-28 -59 -54 -108 -57 -108 -4 0 -11
19 -16 41 -13 59 -33 69 -89 41 -25 -12 -45 -17 -45 -12 0 6 18 46 40 89 l39
79 -30 12 c-16 7 -31 11 -33 9 -19 -21 -126 -256 -124 -272 4 -30 47 -28 120
6 l57 26 11 -42 c28 -110 34 -122 59 -122 21 0 33 20 106 175 77 165 83 175
111 178 30 3 31 1 109 -165 43 -92 83 -174 88 -181 6 -7 19 -12 31 -10 16 2
23 17 37 70 27 107 20 102 91 68 71 -34 103 -38 112 -14 4 10 -30 92 -84 206
l-91 190 17 51 c73 216 -85 438 -309 437 -34 -1 -78 -7 -99 -14z m196 -70 c46
-19 113 -82 136 -126 102 -199 -90 -428 -306 -365 -71 20 -153 98 -172 161
-53 179 65 344 245 344 35 0 79 -6 97 -14z m208 -586 c31 -66 54 -120 50 -120
-3 0 -25 7 -49 16 -23 9 -49 14 -56 11 -8 -3 -19 -26 -26 -51 -6 -25 -14 -46
-17 -46 -4 0 -104 206 -104 216 0 2 21 15 48 28 26 13 56 33 66 45 11 12 22
21 25 21 3 0 32 -54 63 -120z"/>
<path d="M1008 936 c-84 -30 -118 -77 -118 -163 0 -159 188 -230 294 -112 115
127 -17 332 -176 275z m125 -96 c84 -94 -45 -226 -142 -144 -38 32 -49 80 -27
123 35 67 118 77 169 21z"/>
<path d="M320 820 l0 -120 120 0 120 0 0 30 0 29 -87 3 -88 3 -3 88 -3 87 -29
0 -30 0 0 -120z"/>
<path d="M1730 850 l0 -90 -90 0 -90 0 0 -30 0 -30 125 0 125 0 0 120 0 120
-35 0 -35 0 0 -90z"/>
</g>
</svg>
